<svg width="140" height="42" viewBox="0 0 140 42" fill="none" xmlns="http://www.w3.org/2000/svg">
<g clip-path="url(#clip0)">
<path d="M128.851 0.0001365H11.155C10.726 0.0001365 10.3021 0.0001365 9.87425 0.0022365C9.51607 0.0043365 9.16075 0.010437 8.79913 0.0155715C8.01353 0.0238684 7.22978 0.0858966 6.45469 0.201117C5.68068 0.318846 4.93092 0.540798 4.23077 0.859467C3.53147 1.18083 2.8925 1.59841 2.33704 2.09706C1.77867 2.59431 1.31322 3.16905 0.958592 3.7992C0.602988 4.4281 0.356412 5.10202 0.227378 5.79769C0.097118 6.49248 0.0270238 7.19528 0.0177246 7.89979C0.00686756 8.22172 0.00572102 8.54472 0 8.86669V33.1367C0.00572102 33.4627 0.00686756 33.7785 0.0177246 34.1047C0.0270266 34.8091 0.0971208 35.5119 0.227378 36.2067C0.356055 36.9027 0.602647 37.577 0.958592 38.2062C1.31306 38.8343 1.77857 39.4067 2.33704 39.9012C2.89039 40.402 3.52978 40.8199 4.23077 41.1388C4.93092 41.4583 5.68059 41.6816 6.45469 41.8012C7.22991 41.9155 8.01358 41.9775 8.79913 41.9868C9.16075 41.9939 9.51607 41.998 9.87425 41.998C10.3021 42.0001 10.726 42.0001 11.155 42.0001H128.851C129.272 42.0001 129.699 42.0001 130.119 41.998C130.476 41.998 130.842 41.9939 131.198 41.9868C131.982 41.978 132.764 41.9159 133.538 41.8012C134.315 41.6808 135.067 41.4576 135.77 41.1388C136.471 40.8197 137.11 40.4019 137.662 39.9012C138.219 39.4048 138.686 38.8328 139.045 38.2062C139.398 37.5766 139.642 36.9023 139.769 36.2067C139.9 35.5118 139.972 34.8092 139.986 34.1047C139.991 33.7785 139.991 33.4627 139.991 33.1367C140 32.7552 140 32.3758 140 31.9882V10.0131C140 9.62855 140 9.24711 139.991 8.86669C139.991 8.54472 139.991 8.22172 139.986 7.89975C139.972 7.19518 139.9 6.49253 139.769 5.79765C139.642 5.10238 139.398 4.42851 139.045 3.79916C138.323 2.53609 137.178 1.50796 135.77 0.859372C135.067 0.541482 134.314 0.319589 133.538 0.201022C132.764 0.0852944 131.982 0.0232447 131.198 0.0154245C130.842 0.0103005 130.476 0.0041475 130.119 0.0021C129.699 0 129.272 0 128.851 0V0.0001365Z" fill="#A6A6A6"/>
<path d="M9.88007 41.0814C9.52362 41.0814 9.17577 41.0774 8.82211 41.0702C8.08947 41.0616 7.35854 41.0044 6.63532 40.899C5.96096 40.7947 5.30768 40.6008 4.69703 40.3237C4.09199 40.0488 3.54014 39.6884 3.06262 39.2562C2.5782 38.8292 2.17489 38.3339 1.86869 37.7899C1.55911 37.2424 1.34486 36.6556 1.23341 36.0498C1.11305 35.399 1.04793 34.7408 1.03861 34.0811C1.03119 33.8597 1.02148 33.1223 1.02148 33.1223V8.86675C1.02148 8.86675 1.03183 8.14077 1.03867 7.92749C1.04759 7.2688 1.11233 6.61168 1.23233 5.96181C1.34399 5.35441 1.5584 4.76588 1.86815 4.21661C2.17323 3.67304 2.5743 3.17735 3.0558 2.74876C3.53677 2.3161 4.09038 1.95383 4.69646 1.67517C5.3057 1.39889 5.95774 1.20636 6.63075 1.10403C7.35634 0.997523 8.08981 0.939941 8.82499 0.931766L9.88065 0.918945H130.114L131.182 0.93228C131.911 0.940049 132.637 0.997118 133.356 1.103C134.036 1.20662 134.695 1.40049 135.311 1.67824C136.525 2.23983 137.513 3.12832 138.137 4.21917C138.441 4.76465 138.653 5.34838 138.763 5.95053C138.884 6.60574 138.952 7.26802 138.966 7.93211C138.97 8.22947 138.97 8.54888 138.97 8.86675C138.979 9.2605 138.979 9.63528 138.979 10.0131V31.9882C138.979 32.3697 138.979 32.7419 138.97 33.1172C138.97 33.4587 138.97 33.7715 138.965 34.0934C138.951 34.7456 138.884 35.3961 138.765 36.0396C138.656 36.6497 138.443 37.2411 138.133 37.7931C137.825 38.3311 137.424 38.8221 136.945 39.248C136.467 39.6825 135.914 40.045 135.308 40.3217C134.693 40.601 134.035 40.7956 133.356 40.899C132.633 41.005 131.902 41.0622 131.17 41.0702C130.827 41.0774 130.468 41.0814 130.12 41.0814L128.851 41.0835L9.88007 41.0814Z" fill="black"/>
<path d="M28.978 21.3159C28.9906 20.4395 29.25 19.5802 29.732 18.818C30.2141 18.0557 30.9031 17.4153 31.735 16.9563C31.2065 16.2789 30.5093 15.7214 29.6988 15.3281C28.8882 14.9348 27.9866 14.7166 27.0656 14.6907C25.101 14.5056 23.1964 15.7458 22.1953 15.7458C21.1748 15.7458 19.6334 14.7091 17.9735 14.7397C16.8999 14.7709 15.8536 15.0511 14.9365 15.553C14.0194 16.055 13.2628 16.7616 12.7405 17.604C10.4778 21.1198 12.1656 26.2869 14.333 29.1289C15.4174 30.5205 16.6848 32.075 18.3431 32.0198C19.9659 31.9594 20.572 31.0911 22.5308 31.0911C24.4715 31.0911 25.0401 32.0198 26.7321 31.9848C28.4734 31.9594 29.5705 30.587 30.6169 29.1822C31.396 28.1906 31.9956 27.0947 32.3933 25.9351C31.3817 25.551 30.5184 24.9083 29.911 24.0868C29.3037 23.2654 28.9792 22.3017 28.978 21.3159V21.3159Z" fill="white"/>
<path d="M25.7827 12.8214C26.7321 11.7985 27.1998 10.4837 27.0866 9.15625C25.636 9.29298 24.2962 9.91517 23.3339 10.8988C22.8634 11.3794 22.5031 11.9384 22.2735 12.5441C22.0439 13.1497 21.9495 13.7899 21.9958 14.4283C22.7214 14.435 23.4391 14.2939 24.0951 14.0155C24.751 13.7372 25.328 13.3289 25.7827 12.8214Z" fill="white"/>
<path d="M49.4906 28.4966H43.9528L42.6229 32.0208H40.2773L45.5227 18.9819H47.9597L53.205 32.0208H50.8194L49.4906 28.4966ZM44.5264 26.8703H48.916L46.7521 21.1507H46.6915L44.5264 26.8703Z" fill="white"/>
<path d="M64.5324 27.2685C64.5324 30.2227 62.7706 32.1207 60.1119 32.1207C59.4385 32.1523 58.7687 32.013 58.1793 31.7189C57.5899 31.4247 57.1047 30.9876 56.7792 30.4575H56.7289V35.166H54.5547V22.5148H56.6592V24.0959H56.6992C57.0396 23.5684 57.533 23.1335 58.1269 22.8375C58.7208 22.5416 59.393 22.3957 60.072 22.4153C62.7603 22.4153 64.5324 24.3226 64.5324 27.2685ZM62.2976 27.2685C62.2976 25.3439 61.1893 24.0785 59.4984 24.0785C57.8372 24.0785 56.7198 25.3705 56.7198 27.2685C56.7198 29.1839 57.8372 30.4667 59.4984 30.4667C61.1893 30.4667 62.2976 29.2106 62.2976 27.2685Z" fill="white"/>
<path d="M76.1906 27.2685C76.1906 30.2227 74.4288 32.1206 71.7702 32.1206C71.0967 32.1523 70.4269 32.013 69.8375 31.7189C69.2481 31.4247 68.7629 30.9876 68.4374 30.4574H68.3871V35.166H66.2129V22.5148H68.3174V24.0959H68.3574C68.6978 23.5683 69.1912 23.1335 69.7851 22.8375C70.379 22.5416 71.0512 22.3957 71.7301 22.4153C74.4185 22.4153 76.1906 24.3225 76.1906 27.2685ZM73.9558 27.2685C73.9558 25.3439 72.8475 24.0785 71.1566 24.0785C69.4954 24.0785 68.378 25.3705 68.378 27.2685C68.378 29.1839 69.4954 30.4667 71.1566 30.4667C72.8476 30.4667 73.9558 29.2106 73.9558 27.2685H73.9558Z" fill="white"/>
<path d="M83.8956 28.388C84.0567 29.681 85.4563 30.53 87.3689 30.53C89.2015 30.53 90.5199 29.681 90.5199 28.5151C90.5199 27.503 89.7247 26.897 87.8419 26.4818L85.959 26.0747C83.2912 25.4963 82.0527 24.3766 82.0527 22.5596C82.0527 20.3099 84.2372 18.7646 87.3391 18.7646C90.4091 18.7646 92.5136 20.3099 92.5845 22.5596H90.3897C90.2583 21.2584 89.0598 20.473 87.3083 20.473C85.5568 20.473 84.3583 21.2676 84.3583 22.4243C84.3583 23.3461 85.1238 23.8885 86.9964 24.3038L88.597 24.6565C91.5779 25.2892 92.8164 26.3638 92.8164 28.271C92.8164 30.7104 90.6513 32.2383 87.2077 32.2383C83.9858 32.2383 81.8105 30.7463 81.6699 28.3879L83.8956 28.388Z" fill="white"/>
<path d="M97.5098 20.2646V22.5144H99.524V24.0596H97.5098V29.3004C97.5098 30.1145 97.9131 30.4939 98.7985 30.4939C99.0377 30.4902 99.2764 30.4751 99.5138 30.4488V31.9848C99.1157 32.0516 98.711 32.0818 98.3061 32.0751C96.1616 32.0751 95.3253 31.3522 95.3253 29.5085V24.0596H93.7852V22.5144H95.3252V20.2646H97.5098Z" fill="white"/>
<path d="M100.691 27.2681C100.691 24.277 102.654 22.3975 105.715 22.3975C108.786 22.3975 110.74 24.277 110.74 27.2681C110.74 30.2673 108.796 32.1387 105.715 32.1387C102.635 32.1387 100.691 30.2673 100.691 27.2681ZM108.525 27.2681C108.525 25.2163 107.477 24.0053 105.715 24.0053C103.953 24.0053 102.907 25.2255 102.907 27.2681C102.907 29.3281 103.953 30.5298 105.715 30.5298C107.477 30.5298 108.524 29.3281 108.524 27.2681H108.525Z" fill="white"/>
<path d="M112.531 22.5147H114.605V24.1328H114.655C114.796 23.6274 115.125 23.1808 115.589 22.868C116.053 22.5552 116.623 22.3954 117.203 22.4152C117.454 22.4144 117.703 22.4389 117.948 22.488V24.3132C117.632 24.2265 117.302 24.1867 116.971 24.1953C116.655 24.1838 116.34 24.2338 116.048 24.3418C115.756 24.4499 115.493 24.6134 115.278 24.8212C115.062 25.0289 114.9 25.2761 114.801 25.5456C114.702 25.8151 114.67 26.1006 114.705 26.3825V32.0211H112.531L112.531 22.5147Z" fill="white"/>
<path d="M127.973 29.2286C127.68 30.9543 125.808 32.1387 123.412 32.1387C120.331 32.1387 118.418 30.2858 118.418 27.3132C118.418 24.3313 120.341 22.3975 123.321 22.3975C126.251 22.3975 128.094 24.2042 128.094 27.0866V27.7551H120.613V27.873C120.578 28.2229 120.627 28.5754 120.756 28.907C120.885 29.2386 121.091 29.5418 121.36 29.7965C121.63 30.0512 121.957 30.2515 122.319 30.3841C122.681 30.5167 123.071 30.5786 123.462 30.5657C123.976 30.6089 124.492 30.5021 124.932 30.2612C125.373 30.0203 125.715 29.6581 125.908 29.2286L127.973 29.2286ZM120.623 26.3914H125.919C125.938 26.0768 125.885 25.762 125.763 25.4667C125.64 25.1714 125.451 24.9021 125.207 24.6755C124.963 24.449 124.669 24.2701 124.345 24.1502C124.02 24.0303 123.672 23.9718 123.321 23.9786C122.966 23.9767 122.615 24.0378 122.288 24.1582C121.96 24.2787 121.662 24.4562 121.412 24.6806C121.161 24.9049 120.962 25.1715 120.827 25.4652C120.691 25.7588 120.622 26.0736 120.623 26.3914V26.3914Z" fill="white"/>
<path d="M44.254 9.16775C44.7098 9.1384 45.1672 9.2002 45.5932 9.3487C46.0192 9.49721 46.4031 9.72871 46.7174 10.0265C47.0316 10.3243 47.2683 10.681 47.4103 11.0708C47.5523 11.4607 47.5962 11.8739 47.5387 12.2808C47.5387 14.2824 46.3334 15.4329 44.254 15.4329H41.7324V9.16775H44.254ZM42.8167 14.5469H44.1328C44.4586 14.5644 44.7845 14.5164 45.087 14.4066C45.3895 14.2968 45.6609 14.1278 45.8814 13.9119C46.1019 13.6961 46.266 13.4388 46.3618 13.1589C46.4576 12.8789 46.4826 12.5833 46.435 12.2936C46.4791 12.005 46.4516 11.7113 46.3543 11.4334C46.2571 11.1555 46.0926 10.9003 45.8726 10.6862C45.6525 10.4721 45.3825 10.3043 45.0817 10.1948C44.7809 10.0854 44.4569 10.037 44.1328 10.0531H42.8167V14.5469Z" fill="white"/>
<path d="M48.7637 13.0665C48.7306 12.7558 48.7702 12.4423 48.88 12.1461C48.9898 11.8499 49.1673 11.5776 49.4012 11.3466C49.6352 11.1157 49.9203 10.9311 50.2383 10.8048C50.5564 10.6785 50.9003 10.6133 51.2481 10.6133C51.5959 10.6133 51.9399 10.6785 52.2579 10.8048C52.576 10.9311 52.8611 11.1157 53.095 11.3466C53.3289 11.5776 53.5065 11.8499 53.6163 12.1461C53.726 12.4423 53.7656 12.7558 53.7325 13.0665C53.7663 13.3775 53.7271 13.6914 53.6176 13.9881C53.5082 14.2847 53.3307 14.5576 53.0967 14.789C52.8627 15.0204 52.5774 15.2054 52.259 15.3319C51.9407 15.4585 51.5963 15.5239 51.2481 15.5239C50.8999 15.5239 50.5556 15.4585 50.2372 15.3319C49.9188 15.2054 49.6335 15.0204 49.3995 14.789C49.1655 14.5576 48.9881 14.2847 48.8786 13.9881C48.7691 13.6914 48.73 13.3775 48.7637 13.0665V13.0665ZM52.6631 13.0665C52.6631 12.0416 52.1501 11.4423 51.2498 11.4423C50.3461 11.4423 49.8377 12.0416 49.8377 13.0665C49.8377 14.0996 50.3461 14.6943 51.2498 14.6943C52.1501 14.6943 52.6631 14.0955 52.6631 13.0665H52.6631Z" fill="white"/>
<path d="M60.3367 15.4327H59.2582L58.1693 11.9504H58.0871L57.0028 15.4327H55.9346L54.4824 10.7046H55.537L56.4807 14.3124H56.5584L57.6415 10.7046H58.6389L59.722 14.3124H59.8043L60.7434 10.7046H61.7831L60.3367 15.4327Z" fill="white"/>
<path d="M63.0039 10.7048H64.0048V11.4559H64.0825C64.2142 11.1861 64.4365 10.96 64.7183 10.809C65.0002 10.658 65.3274 10.5897 65.6546 10.6135C65.9109 10.5962 66.1683 10.6309 66.4076 10.715C66.647 10.7991 66.8622 10.9305 67.0373 11.0994C67.2125 11.2683 67.343 11.4703 67.4193 11.6907C67.4956 11.911 67.5156 12.1439 67.478 12.3721V15.4328H66.4383V12.6064C66.4383 11.8466 66.0704 11.4687 65.3015 11.4687C65.1275 11.4614 64.9537 11.488 64.7922 11.5467C64.6307 11.6053 64.4852 11.6946 64.3657 11.8084C64.2463 11.9222 64.1556 12.0578 64.1 12.206C64.0444 12.3542 64.0252 12.5114 64.0436 12.6669V15.4329H63.0039L63.0039 10.7048Z" fill="white"/>
<path d="M69.1348 8.85889H70.1745V15.4327H69.1348V8.85889Z" fill="white"/>
<path d="M71.6211 13.0666C71.588 12.7558 71.6276 12.4423 71.7374 12.1461C71.8473 11.8499 72.0248 11.5776 72.2588 11.3466C72.4927 11.1157 72.7779 10.9311 73.0959 10.8048C73.414 10.6785 73.758 10.6133 74.1058 10.6133C74.4536 10.6133 74.7976 10.6785 75.1156 10.8048C75.4337 10.9311 75.7189 11.1157 75.9528 11.3466C76.1868 11.5776 76.3643 11.8499 76.4741 12.1461C76.584 12.4423 76.6236 12.7558 76.5905 13.0666C76.6242 13.3776 76.585 13.6915 76.4755 13.9882C76.366 14.2848 76.1885 14.5576 75.9545 14.7891C75.7205 15.0205 75.4351 15.2054 75.1167 15.332C74.7984 15.4586 74.454 15.5239 74.1058 15.5239C73.7576 15.5239 73.4132 15.4586 73.0948 15.332C72.7765 15.2054 72.4911 15.0205 72.2571 14.7891C72.0231 14.5576 71.8456 14.2848 71.7361 13.9882C71.6266 13.6915 71.5874 13.3776 71.6211 13.0666V13.0666ZM75.5205 13.0666C75.5205 12.0417 75.0075 11.4424 74.1072 11.4424C73.2035 11.4424 72.6951 12.0417 72.6951 13.0666C72.6951 14.0997 73.2035 14.6944 74.1072 14.6944C75.0075 14.6944 75.5205 14.0955 75.5205 13.0666H75.5205Z" fill="white"/>
<path d="M77.6855 14.0955C77.6855 13.2444 78.3916 12.7538 79.645 12.684L81.072 12.6102V12.2021C81.072 11.7028 80.7041 11.4208 79.9934 11.4208C79.413 11.4208 79.0109 11.612 78.8955 11.9463H77.8889C77.9952 11.1342 78.8464 10.6133 80.0414 10.6133C81.3622 10.6133 82.1071 11.2034 82.1071 12.2021V15.4326H81.1063V14.7682H81.024C80.857 15.0065 80.6226 15.2008 80.3446 15.3312C80.0666 15.4616 79.755 15.5235 79.4416 15.5105C79.2204 15.5312 78.9969 15.51 78.7854 15.4483C78.574 15.3867 78.3792 15.286 78.2138 15.1527C78.0483 15.0194 77.9158 14.8564 77.8249 14.6743C77.7339 14.4922 77.6864 14.2951 77.6855 14.0955V14.0955ZM81.072 13.6915V13.2962L79.7855 13.37C79.06 13.4136 78.7309 13.6351 78.7309 14.0519C78.7309 14.4774 79.1423 14.7251 79.7078 14.7251C79.8736 14.7401 80.041 14.7251 80.2001 14.6809C80.3592 14.6367 80.5068 14.5643 80.6341 14.4678C80.7613 14.3714 80.8657 14.253 80.9409 14.1196C81.0162 13.9862 81.0607 13.8406 81.072 13.6915V13.6915Z" fill="white"/>
<path d="M83.4727 13.0666C83.4727 11.5726 84.3284 10.6262 85.6594 10.6262C85.9887 10.6125 86.3154 10.6833 86.6015 10.8302C86.8876 10.9771 87.1212 11.194 87.275 11.4557H87.3527V8.85889H88.3923V15.4327H87.3961V14.6857H87.3138C87.1481 14.9455 86.9064 15.1598 86.6148 15.3052C86.3232 15.4506 85.9928 15.5216 85.6594 15.5106C84.3193 15.5106 83.4727 14.5642 83.4727 13.0666ZM84.5467 13.0666C84.5467 14.0694 85.0734 14.6729 85.9543 14.6729C86.8305 14.6729 87.3721 14.0607 87.3721 13.0707C87.3721 12.0853 86.8249 11.4644 85.9543 11.4644C85.079 11.4644 84.5466 12.072 84.5466 13.0666H84.5467Z" fill="white"/>
<path d="M92.6934 13.0665C92.6603 12.7558 92.6999 12.4423 92.8097 12.1461C92.9195 11.8499 93.097 11.5776 93.3309 11.3466C93.5648 11.1157 93.85 10.9311 94.168 10.8048C94.4861 10.6785 94.83 10.6133 95.1778 10.6133C95.5256 10.6133 95.8695 10.6785 96.1876 10.8048C96.5056 10.9311 96.7908 11.1157 97.0247 11.3466C97.2586 11.5776 97.4361 11.8499 97.5459 12.1461C97.6557 12.4423 97.6953 12.7558 97.6622 13.0665C97.696 13.3775 97.6568 13.6914 97.5473 13.9881C97.4378 14.2847 97.2604 14.5576 97.0264 14.789C96.7924 15.0204 96.5071 15.2054 96.1887 15.3319C95.8704 15.4585 95.526 15.5239 95.1778 15.5239C94.8296 15.5239 94.4852 15.4585 94.1669 15.3319C93.8485 15.2054 93.5632 15.0204 93.3292 14.789C93.0952 14.5576 92.9178 14.2847 92.8083 13.9881C92.6988 13.6914 92.6596 13.3775 92.6934 13.0665V13.0665ZM96.5928 13.0665C96.5928 12.0416 96.0798 11.4423 95.1795 11.4423C94.2758 11.4423 93.7674 12.0416 93.7674 13.0665C93.7674 14.0996 94.2758 14.6943 95.1795 14.6943C96.0798 14.6943 96.5928 14.0955 96.5928 13.0665Z" fill="white"/>
<path d="M99.0586 10.7048H100.059V11.4559H100.137C100.269 11.1861 100.491 10.96 100.773 10.809C101.055 10.658 101.382 10.5897 101.709 10.6135C101.966 10.5962 102.223 10.6309 102.462 10.715C102.702 10.7991 102.917 10.9305 103.092 11.0994C103.267 11.2683 103.398 11.4703 103.474 11.6907C103.55 11.911 103.57 12.1439 103.533 12.3721V15.4328H102.493V12.6064C102.493 11.8466 102.125 11.4687 101.356 11.4687C101.182 11.4614 101.008 11.488 100.847 11.5467C100.685 11.6053 100.54 11.6946 100.42 11.8084C100.301 11.9222 100.21 12.0578 100.155 12.206C100.099 12.3542 100.08 12.5114 100.098 12.6669V15.4329H99.0586V10.7048Z" fill="white"/>
<path d="M109.406 9.52734V10.726H110.548V11.512H109.406V13.9432C109.406 14.4385 109.634 14.6553 110.151 14.6553C110.284 14.6549 110.416 14.6478 110.548 14.6338V15.411C110.361 15.441 110.172 15.457 109.982 15.4587C108.826 15.4587 108.366 15.0937 108.366 14.1821V11.5119H107.529V10.726H108.366V9.52734H109.406Z" fill="white"/>
<path d="M111.969 8.85889H112.999V11.4644H113.082C113.22 11.1921 113.448 10.9647 113.736 10.8131C114.023 10.6616 114.356 10.5932 114.688 10.6174C114.943 10.605 115.198 10.6432 115.434 10.7293C115.671 10.8155 115.884 10.9474 116.057 11.1158C116.23 11.2841 116.36 11.4848 116.437 11.7033C116.514 11.9218 116.536 12.1529 116.502 12.3801V15.4327H115.461V12.6103C115.461 11.8551 115.07 11.4726 114.335 11.4726C114.156 11.4594 113.977 11.4815 113.808 11.5372C113.64 11.5929 113.487 11.6809 113.361 11.7951C113.235 11.9093 113.138 12.0468 113.077 12.1982C113.016 12.3495 112.993 12.511 113.008 12.6713V15.4327H111.969L111.969 8.85889Z" fill="white"/>
<path d="M122.563 14.1561C122.422 14.5882 122.116 14.962 121.698 15.212C121.281 15.4621 120.779 15.5725 120.28 15.5239C119.933 15.5322 119.588 15.4725 119.269 15.3491C118.951 15.2257 118.666 15.0415 118.434 14.8093C118.202 14.5771 118.03 14.3025 117.929 14.0045C117.827 13.7065 117.799 13.3922 117.847 13.0835C117.8 12.7739 117.829 12.459 117.93 12.1601C118.031 11.8612 118.203 11.5853 118.433 11.351C118.663 11.1168 118.947 10.9297 119.265 10.8024C119.583 10.6752 119.928 10.6107 120.276 10.6134C121.742 10.6134 122.626 11.5122 122.626 12.9969V13.3225H118.906V13.3747C118.89 13.5483 118.914 13.7229 118.977 13.8875C119.04 14.0521 119.141 14.203 119.274 14.3305C119.406 14.458 119.566 14.5594 119.744 14.628C119.923 14.6967 120.115 14.7312 120.309 14.7292C120.558 14.756 120.809 14.7158 121.033 14.6138C121.256 14.5117 121.44 14.3524 121.562 14.156L122.563 14.1561ZM118.906 12.6324H121.567C121.58 12.4737 121.556 12.3143 121.496 12.1644C121.437 12.0146 121.343 11.8776 121.221 11.7622C121.098 11.6469 120.951 11.5557 120.787 11.4946C120.623 11.4336 120.447 11.4039 120.27 11.4075C120.09 11.4055 119.912 11.4358 119.745 11.4966C119.579 11.5575 119.427 11.6476 119.3 11.7618C119.173 11.8759 119.073 12.0118 119.005 12.1613C118.937 12.3108 118.903 12.471 118.906 12.6324H118.906Z" fill="white"/>
</g>
<defs>
<clipPath id="clip0">
<rect width="140" height="42" fill="white"/>
</clipPath>
</defs>
</svg>
